{"frames": {

"Gloves instance 10000.png":
{
	"frame": {"x":85,"y":75,"w":41,"h":31},
	"rotated": false,
	"trimmed": true,
	"spriteSourceSize": {"x":243,"y":281,"w":41,"h":31},
	"sourceSize": {"w":401,"h":561}
},
"Gloves instance 10001.png":
{
	"frame": {"x":2,"y":75,"w":81,"h":41},
	"rotated": false,
	"trimmed": true,
	"spriteSourceSize": {"x":203,"y":271,"w":81,"h":41},
	"sourceSize": {"w":401,"h":561}
},
"Gloves instance 10002.png":
{
	"frame": {"x":2,"y":2,"w":99,"h":71},
	"rotated": false,
	"trimmed": true,
	"spriteSourceSize": {"x":185,"y":241,"w":99,"h":71},
	"sourceSize": {"w":401,"h":561}
},
"Gloves instance 10003.png":
{
	"frame": {"x":85,"y":108,"w":1,"h":1},
	"rotated": false,
	"trimmed": true,
	"spriteSourceSize": {"x":0,"y":0,"w":1,"h":1},
	"sourceSize": {"w":401,"h":561}
}},
"meta": {
	"app": "http://www.codeandweb.com/texturepacker ",
	"version": "1.0",
	"image": "Gloves.png",
	"format": "RGBA8888",
	"size": {"w":128,"h":118},
	"scale": "1",
	"smartupdate": "$TexturePacker:SmartUpdate:1b5e148547b8db72159be14135d1429c:1/1$"
}
}
