{"frames": {

"SS_P04_BERRYKINS0000.png":
{
	"frame": {"x":1054,"y":374,"w":260,"h":122},
	"rotated": false,
	"trimmed": true,
	"spriteSourceSize": {"x":1,"y":23,"w":260,"h":122},
	"sourceSize": {"w":264,"h":146}
},
"SS_P04_BERRYKINS0001.png":
{
	"frame": {"x":1054,"y":374,"w":260,"h":122},
	"rotated": false,
	"trimmed": true,
	"spriteSourceSize": {"x":1,"y":23,"w":260,"h":122},
	"sourceSize": {"w":264,"h":146}
},
"SS_P04_BERRYKINS0002.png":
{
	"frame": {"x":794,"y":126,"w":262,"h":122},
	"rotated": false,
	"trimmed": true,
	"spriteSourceSize": {"x":1,"y":23,"w":262,"h":122},
	"sourceSize": {"w":264,"h":146}
},
"SS_P04_BERRYKINS0003.png":
{
	"frame": {"x":794,"y":126,"w":262,"h":122},
	"rotated": false,
	"trimmed": true,
	"spriteSourceSize": {"x":1,"y":23,"w":262,"h":122},
	"sourceSize": {"w":264,"h":146}
},
"SS_P04_BERRYKINS0004.png":
{
	"frame": {"x":790,"y":380,"w":262,"h":122},
	"rotated": false,
	"trimmed": true,
	"spriteSourceSize": {"x":1,"y":15,"w":262,"h":122},
	"sourceSize": {"w":264,"h":146}
},
"SS_P04_BERRYKINS0005.png":
{
	"frame": {"x":790,"y":380,"w":262,"h":122},
	"rotated": false,
	"trimmed": true,
	"spriteSourceSize": {"x":1,"y":15,"w":262,"h":122},
	"sourceSize": {"w":264,"h":146}
},
"SS_P04_BERRYKINS0006.png":
{
	"frame": {"x":528,"y":268,"w":260,"h":128},
	"rotated": false,
	"trimmed": true,
	"spriteSourceSize": {"x":1,"y":4,"w":260,"h":128},
	"sourceSize": {"w":264,"h":146}
},
"SS_P04_BERRYKINS0007.png":
{
	"frame": {"x":528,"y":268,"w":260,"h":128},
	"rotated": false,
	"trimmed": true,
	"spriteSourceSize": {"x":1,"y":4,"w":260,"h":128},
	"sourceSize": {"w":264,"h":146}
},
"SS_P04_BERRYKINS0008.png":
{
	"frame": {"x":268,"y":136,"w":260,"h":130},
	"rotated": false,
	"trimmed": true,
	"spriteSourceSize": {"x":1,"y":2,"w":260,"h":130},
	"sourceSize": {"w":264,"h":146}
},
"SS_P04_BERRYKINS0009.png":
{
	"frame": {"x":268,"y":136,"w":260,"h":130},
	"rotated": false,
	"trimmed": true,
	"spriteSourceSize": {"x":1,"y":2,"w":260,"h":130},
	"sourceSize": {"w":264,"h":146}
},
"SS_P04_BERRYKINS0010.png":
{
	"frame": {"x":2,"y":150,"w":264,"h":138},
	"rotated": false,
	"trimmed": true,
	"spriteSourceSize": {"x":0,"y":1,"w":264,"h":138},
	"sourceSize": {"w":264,"h":146}
},
"SS_P04_BERRYKINS0011.png":
{
	"frame": {"x":2,"y":150,"w":264,"h":138},
	"rotated": false,
	"trimmed": true,
	"spriteSourceSize": {"x":0,"y":1,"w":264,"h":138},
	"sourceSize": {"w":264,"h":146}
},
"SS_P04_BERRYKINS0012.png":
{
	"frame": {"x":2,"y":2,"w":264,"h":146},
	"rotated": false,
	"trimmed": false,
	"spriteSourceSize": {"x":0,"y":0,"w":264,"h":146},
	"sourceSize": {"w":264,"h":146}
},
"SS_P04_BERRYKINS0013.png":
{
	"frame": {"x":2,"y":2,"w":264,"h":146},
	"rotated": false,
	"trimmed": false,
	"spriteSourceSize": {"x":0,"y":0,"w":264,"h":146},
	"sourceSize": {"w":264,"h":146}
},
"SS_P04_BERRYKINS0014.png":
{
	"frame": {"x":264,"y":290,"w":262,"h":132},
	"rotated": false,
	"trimmed": true,
	"spriteSourceSize": {"x":0,"y":13,"w":262,"h":132},
	"sourceSize": {"w":264,"h":146}
},
"SS_P04_BERRYKINS0015.png":
{
	"frame": {"x":264,"y":290,"w":262,"h":132},
	"rotated": false,
	"trimmed": true,
	"spriteSourceSize": {"x":0,"y":13,"w":262,"h":132},
	"sourceSize": {"w":264,"h":146}
},
"SS_P04_BERRYKINS0016.png":
{
	"frame": {"x":530,"y":130,"w":262,"h":124},
	"rotated": false,
	"trimmed": true,
	"spriteSourceSize": {"x":0,"y":21,"w":262,"h":124},
	"sourceSize": {"w":264,"h":146}
},
"SS_P04_BERRYKINS0017.png":
{
	"frame": {"x":530,"y":130,"w":262,"h":124},
	"rotated": false,
	"trimmed": true,
	"spriteSourceSize": {"x":0,"y":21,"w":262,"h":124},
	"sourceSize": {"w":264,"h":146}
},
"SS_P04_BERRYKINS0018.png":
{
	"frame": {"x":530,"y":2,"w":260,"h":126},
	"rotated": false,
	"trimmed": true,
	"spriteSourceSize": {"x":1,"y":19,"w":260,"h":126},
	"sourceSize": {"w":264,"h":146}
},
"SS_P04_BERRYKINS0019.png":
{
	"frame": {"x":530,"y":2,"w":260,"h":126},
	"rotated": false,
	"trimmed": true,
	"spriteSourceSize": {"x":1,"y":19,"w":260,"h":126},
	"sourceSize": {"w":264,"h":146}
},
"SS_P04_BERRYKINS0020.png":
{
	"frame": {"x":268,"y":2,"w":260,"h":132},
	"rotated": false,
	"trimmed": true,
	"spriteSourceSize": {"x":1,"y":13,"w":260,"h":132},
	"sourceSize": {"w":264,"h":146}
},
"SS_P04_BERRYKINS0021.png":
{
	"frame": {"x":268,"y":2,"w":260,"h":132},
	"rotated": false,
	"trimmed": true,
	"spriteSourceSize": {"x":1,"y":13,"w":260,"h":132},
	"sourceSize": {"w":264,"h":146}
},
"SS_P04_BERRYKINS0022.png":
{
	"frame": {"x":2,"y":290,"w":260,"h":138},
	"rotated": false,
	"trimmed": true,
	"spriteSourceSize": {"x":1,"y":7,"w":260,"h":138},
	"sourceSize": {"w":264,"h":146}
},
"SS_P04_BERRYKINS0023.png":
{
	"frame": {"x":2,"y":290,"w":260,"h":138},
	"rotated": false,
	"trimmed": true,
	"spriteSourceSize": {"x":1,"y":7,"w":260,"h":138},
	"sourceSize": {"w":264,"h":146}
},
"SS_P04_BERRYKINS0024.png":
{
	"frame": {"x":790,"y":256,"w":262,"h":122},
	"rotated": false,
	"trimmed": true,
	"spriteSourceSize": {"x":0,"y":23,"w":262,"h":122},
	"sourceSize": {"w":264,"h":146}
},
"SS_P04_BERRYKINS0025.png":
{
	"frame": {"x":790,"y":256,"w":262,"h":122},
	"rotated": false,
	"trimmed": true,
	"spriteSourceSize": {"x":0,"y":23,"w":262,"h":122},
	"sourceSize": {"w":264,"h":146}
},
"SS_P04_BERRYKINS0026.png":
{
	"frame": {"x":792,"y":2,"w":262,"h":122},
	"rotated": false,
	"trimmed": true,
	"spriteSourceSize": {"x":0,"y":23,"w":262,"h":122},
	"sourceSize": {"w":264,"h":146}
},
"SS_P04_BERRYKINS0027.png":
{
	"frame": {"x":792,"y":2,"w":262,"h":122},
	"rotated": false,
	"trimmed": true,
	"spriteSourceSize": {"x":0,"y":23,"w":262,"h":122},
	"sourceSize": {"w":264,"h":146}
},
"SS_P04_BERRYKINS0028.png":
{
	"frame": {"x":1054,"y":250,"w":260,"h":122},
	"rotated": false,
	"trimmed": true,
	"spriteSourceSize": {"x":1,"y":23,"w":260,"h":122},
	"sourceSize": {"w":264,"h":146}
},
"SS_P04_BERRYKINS0029.png":
{
	"frame": {"x":1054,"y":250,"w":260,"h":122},
	"rotated": false,
	"trimmed": true,
	"spriteSourceSize": {"x":1,"y":23,"w":260,"h":122},
	"sourceSize": {"w":264,"h":146}
},
"SS_P04_BERRYKINS0030.png":
{
	"frame": {"x":794,"y":126,"w":262,"h":122},
	"rotated": false,
	"trimmed": true,
	"spriteSourceSize": {"x":1,"y":23,"w":262,"h":122},
	"sourceSize": {"w":264,"h":146}
},
"SS_P04_BERRYKINS0031.png":
{
	"frame": {"x":794,"y":126,"w":262,"h":122},
	"rotated": false,
	"trimmed": true,
	"spriteSourceSize": {"x":1,"y":23,"w":262,"h":122},
	"sourceSize": {"w":264,"h":146}
},
"SS_P04_BERRYKINS0032.png":
{
	"frame": {"x":790,"y":380,"w":262,"h":122},
	"rotated": false,
	"trimmed": true,
	"spriteSourceSize": {"x":1,"y":15,"w":262,"h":122},
	"sourceSize": {"w":264,"h":146}
},
"SS_P04_BERRYKINS0033.png":
{
	"frame": {"x":790,"y":380,"w":262,"h":122},
	"rotated": false,
	"trimmed": true,
	"spriteSourceSize": {"x":1,"y":15,"w":262,"h":122},
	"sourceSize": {"w":264,"h":146}
},
"SS_P04_BERRYKINS0034.png":
{
	"frame": {"x":528,"y":268,"w":260,"h":128},
	"rotated": false,
	"trimmed": true,
	"spriteSourceSize": {"x":1,"y":4,"w":260,"h":128},
	"sourceSize": {"w":264,"h":146}
},
"SS_P04_BERRYKINS0035.png":
{
	"frame": {"x":528,"y":268,"w":260,"h":128},
	"rotated": false,
	"trimmed": true,
	"spriteSourceSize": {"x":1,"y":4,"w":260,"h":128},
	"sourceSize": {"w":264,"h":146}
},
"SS_P04_BERRYKINS0036.png":
{
	"frame": {"x":268,"y":136,"w":260,"h":130},
	"rotated": false,
	"trimmed": true,
	"spriteSourceSize": {"x":1,"y":2,"w":260,"h":130},
	"sourceSize": {"w":264,"h":146}
},
"SS_P04_BERRYKINS0037.png":
{
	"frame": {"x":268,"y":136,"w":260,"h":130},
	"rotated": false,
	"trimmed": true,
	"spriteSourceSize": {"x":1,"y":2,"w":260,"h":130},
	"sourceSize": {"w":264,"h":146}
},
"SS_P04_BERRYKINS0038.png":
{
	"frame": {"x":2,"y":150,"w":264,"h":138},
	"rotated": false,
	"trimmed": true,
	"spriteSourceSize": {"x":0,"y":1,"w":264,"h":138},
	"sourceSize": {"w":264,"h":146}
},
"SS_P04_BERRYKINS0039.png":
{
	"frame": {"x":2,"y":150,"w":264,"h":138},
	"rotated": false,
	"trimmed": true,
	"spriteSourceSize": {"x":0,"y":1,"w":264,"h":138},
	"sourceSize": {"w":264,"h":146}
},
"SS_P04_BERRYKINS0040.png":
{
	"frame": {"x":2,"y":2,"w":264,"h":146},
	"rotated": false,
	"trimmed": false,
	"spriteSourceSize": {"x":0,"y":0,"w":264,"h":146},
	"sourceSize": {"w":264,"h":146}
},
"SS_P04_BERRYKINS0041.png":
{
	"frame": {"x":2,"y":2,"w":264,"h":146},
	"rotated": false,
	"trimmed": false,
	"spriteSourceSize": {"x":0,"y":0,"w":264,"h":146},
	"sourceSize": {"w":264,"h":146}
},
"SS_P04_BERRYKINS0042.png":
{
	"frame": {"x":264,"y":290,"w":262,"h":132},
	"rotated": false,
	"trimmed": true,
	"spriteSourceSize": {"x":0,"y":13,"w":262,"h":132},
	"sourceSize": {"w":264,"h":146}
},
"SS_P04_BERRYKINS0043.png":
{
	"frame": {"x":264,"y":290,"w":262,"h":132},
	"rotated": false,
	"trimmed": true,
	"spriteSourceSize": {"x":0,"y":13,"w":262,"h":132},
	"sourceSize": {"w":264,"h":146}
},
"SS_P04_BERRYKINS0044.png":
{
	"frame": {"x":530,"y":130,"w":262,"h":124},
	"rotated": false,
	"trimmed": true,
	"spriteSourceSize": {"x":0,"y":21,"w":262,"h":124},
	"sourceSize": {"w":264,"h":146}
},
"SS_P04_BERRYKINS0045.png":
{
	"frame": {"x":530,"y":130,"w":262,"h":124},
	"rotated": false,
	"trimmed": true,
	"spriteSourceSize": {"x":0,"y":21,"w":262,"h":124},
	"sourceSize": {"w":264,"h":146}
},
"SS_P04_BERRYKINS0046.png":
{
	"frame": {"x":530,"y":2,"w":260,"h":126},
	"rotated": false,
	"trimmed": true,
	"spriteSourceSize": {"x":1,"y":19,"w":260,"h":126},
	"sourceSize": {"w":264,"h":146}
},
"SS_P04_BERRYKINS0047.png":
{
	"frame": {"x":530,"y":2,"w":260,"h":126},
	"rotated": false,
	"trimmed": true,
	"spriteSourceSize": {"x":1,"y":19,"w":260,"h":126},
	"sourceSize": {"w":264,"h":146}
},
"SS_P04_BERRYKINS0048.png":
{
	"frame": {"x":268,"y":2,"w":260,"h":132},
	"rotated": false,
	"trimmed": true,
	"spriteSourceSize": {"x":1,"y":13,"w":260,"h":132},
	"sourceSize": {"w":264,"h":146}
},
"SS_P04_BERRYKINS0049.png":
{
	"frame": {"x":268,"y":2,"w":260,"h":132},
	"rotated": false,
	"trimmed": true,
	"spriteSourceSize": {"x":1,"y":13,"w":260,"h":132},
	"sourceSize": {"w":264,"h":146}
},
"SS_P04_BERRYKINS0050.png":
{
	"frame": {"x":2,"y":290,"w":260,"h":138},
	"rotated": false,
	"trimmed": true,
	"spriteSourceSize": {"x":1,"y":7,"w":260,"h":138},
	"sourceSize": {"w":264,"h":146}
},
"SS_P04_BERRYKINS0051.png":
{
	"frame": {"x":2,"y":290,"w":260,"h":138},
	"rotated": false,
	"trimmed": true,
	"spriteSourceSize": {"x":1,"y":7,"w":260,"h":138},
	"sourceSize": {"w":264,"h":146}
},
"SS_P04_BERRYKINS0052.png":
{
	"frame": {"x":790,"y":256,"w":262,"h":122},
	"rotated": false,
	"trimmed": true,
	"spriteSourceSize": {"x":0,"y":23,"w":262,"h":122},
	"sourceSize": {"w":264,"h":146}
},
"SS_P04_BERRYKINS0053.png":
{
	"frame": {"x":790,"y":256,"w":262,"h":122},
	"rotated": false,
	"trimmed": true,
	"spriteSourceSize": {"x":0,"y":23,"w":262,"h":122},
	"sourceSize": {"w":264,"h":146}
},
"SS_P04_BERRYKINS0054.png":
{
	"frame": {"x":792,"y":2,"w":262,"h":122},
	"rotated": false,
	"trimmed": true,
	"spriteSourceSize": {"x":0,"y":23,"w":262,"h":122},
	"sourceSize": {"w":264,"h":146}
},
"SS_P04_BERRYKINS0055.png":
{
	"frame": {"x":792,"y":2,"w":262,"h":122},
	"rotated": false,
	"trimmed": true,
	"spriteSourceSize": {"x":0,"y":23,"w":262,"h":122},
	"sourceSize": {"w":264,"h":146}
},
"SS_P04_BERRYKINS0056.png":
{
	"frame": {"x":1054,"y":250,"w":260,"h":122},
	"rotated": false,
	"trimmed": true,
	"spriteSourceSize": {"x":1,"y":23,"w":260,"h":122},
	"sourceSize": {"w":264,"h":146}
},
"SS_P04_BERRYKINS0057.png":
{
	"frame": {"x":1054,"y":250,"w":260,"h":122},
	"rotated": false,
	"trimmed": true,
	"spriteSourceSize": {"x":1,"y":23,"w":260,"h":122},
	"sourceSize": {"w":264,"h":146}
},
"SS_P04_BERRYKINS0058.png":
{
	"frame": {"x":1054,"y":374,"w":260,"h":122},
	"rotated": false,
	"trimmed": true,
	"spriteSourceSize": {"x":1,"y":23,"w":260,"h":122},
	"sourceSize": {"w":264,"h":146}
},
"SS_P04_BERRYKINS0059.png":
{
	"frame": {"x":1054,"y":374,"w":260,"h":122},
	"rotated": false,
	"trimmed": true,
	"spriteSourceSize": {"x":1,"y":23,"w":260,"h":122},
	"sourceSize": {"w":264,"h":146}
}},
"meta": {
	"app": "http://www.codeandweb.com/texturepacker ",
	"version": "1.0",
	"image": "SS_P04_BERRYKINS.png",
	"format": "RGBA8888",
	"size": {"w":1316,"h":504},
	"scale": "1",
	"smartupdate": "$TexturePacker:SmartUpdate:9c97e1314cdb197752bce9d9e708ff2b:1/1$"
}
}
