{"frames": {

"P14_BLUE_BERRYKIN0000.png":
{
	"frame": {"x":2,"y":756,"w":58,"h":91},
	"rotated": false,
	"trimmed": true,
	"spriteSourceSize": {"x":12,"y":4,"w":58,"h":91},
	"sourceSize": {"w":74,"h":97}
},
"P14_BLUE_BERRYKIN0001.png":
{
	"frame": {"x":2,"y":756,"w":58,"h":91},
	"rotated": false,
	"trimmed": true,
	"spriteSourceSize": {"x":12,"y":4,"w":58,"h":91},
	"sourceSize": {"w":74,"h":97}
},
"P14_BLUE_BERRYKIN0002.png":
{
	"frame": {"x":2,"y":382,"w":58,"h":93},
	"rotated": false,
	"trimmed": true,
	"spriteSourceSize": {"x":12,"y":4,"w":58,"h":93},
	"sourceSize": {"w":74,"h":97}
},
"P14_BLUE_BERRYKIN0003.png":
{
	"frame": {"x":2,"y":382,"w":58,"h":93},
	"rotated": false,
	"trimmed": true,
	"spriteSourceSize": {"x":12,"y":4,"w":58,"h":93},
	"sourceSize": {"w":74,"h":97}
},
"P14_BLUE_BERRYKIN0004.png":
{
	"frame": {"x":2,"y":1031,"w":58,"h":89},
	"rotated": false,
	"trimmed": true,
	"spriteSourceSize": {"x":11,"y":6,"w":58,"h":89},
	"sourceSize": {"w":74,"h":97}
},
"P14_BLUE_BERRYKIN0005.png":
{
	"frame": {"x":2,"y":1031,"w":58,"h":89},
	"rotated": false,
	"trimmed": true,
	"spriteSourceSize": {"x":11,"y":6,"w":58,"h":89},
	"sourceSize": {"w":74,"h":97}
},
"P14_BLUE_BERRYKIN0006.png":
{
	"frame": {"x":2,"y":940,"w":58,"h":89},
	"rotated": false,
	"trimmed": true,
	"spriteSourceSize": {"x":11,"y":6,"w":58,"h":89},
	"sourceSize": {"w":74,"h":97}
},
"P14_BLUE_BERRYKIN0007.png":
{
	"frame": {"x":2,"y":940,"w":58,"h":89},
	"rotated": false,
	"trimmed": true,
	"spriteSourceSize": {"x":11,"y":6,"w":58,"h":89},
	"sourceSize": {"w":74,"h":97}
},
"P14_BLUE_BERRYKIN0008.png":
{
	"frame": {"x":2,"y":663,"w":58,"h":91},
	"rotated": false,
	"trimmed": true,
	"spriteSourceSize": {"x":11,"y":3,"w":58,"h":91},
	"sourceSize": {"w":74,"h":97}
},
"P14_BLUE_BERRYKIN0009.png":
{
	"frame": {"x":2,"y":663,"w":58,"h":91},
	"rotated": false,
	"trimmed": true,
	"spriteSourceSize": {"x":11,"y":3,"w":58,"h":91},
	"sourceSize": {"w":74,"h":97}
},
"P14_BLUE_BERRYKIN0010.png":
{
	"frame": {"x":2,"y":287,"w":58,"h":93},
	"rotated": false,
	"trimmed": true,
	"spriteSourceSize": {"x":8,"y":2,"w":58,"h":93},
	"sourceSize": {"w":74,"h":97}
},
"P14_BLUE_BERRYKIN0011.png":
{
	"frame": {"x":2,"y":287,"w":58,"h":93},
	"rotated": false,
	"trimmed": true,
	"spriteSourceSize": {"x":8,"y":2,"w":58,"h":93},
	"sourceSize": {"w":74,"h":97}
},
"P14_BLUE_BERRYKIN0012.png":
{
	"frame": {"x":2,"y":1122,"w":56,"h":95},
	"rotated": false,
	"trimmed": true,
	"spriteSourceSize": {"x":6,"y":0,"w":56,"h":95},
	"sourceSize": {"w":74,"h":97}
},
"P14_BLUE_BERRYKIN0013.png":
{
	"frame": {"x":2,"y":1122,"w":56,"h":95},
	"rotated": false,
	"trimmed": true,
	"spriteSourceSize": {"x":6,"y":0,"w":56,"h":95},
	"sourceSize": {"w":74,"h":97}
},
"P14_BLUE_BERRYKIN0014.png":
{
	"frame": {"x":2,"y":192,"w":58,"h":93},
	"rotated": false,
	"trimmed": true,
	"spriteSourceSize": {"x":1,"y":1,"w":58,"h":93},
	"sourceSize": {"w":74,"h":97}
},
"P14_BLUE_BERRYKIN0015.png":
{
	"frame": {"x":2,"y":192,"w":58,"h":93},
	"rotated": false,
	"trimmed": true,
	"spriteSourceSize": {"x":1,"y":1,"w":58,"h":93},
	"sourceSize": {"w":74,"h":97}
},
"P14_BLUE_BERRYKIN0016.png":
{
	"frame": {"x":2,"y":97,"w":58,"h":93},
	"rotated": false,
	"trimmed": true,
	"spriteSourceSize": {"x":1,"y":1,"w":58,"h":93},
	"sourceSize": {"w":74,"h":97}
},
"P14_BLUE_BERRYKIN0017.png":
{
	"frame": {"x":2,"y":97,"w":58,"h":93},
	"rotated": false,
	"trimmed": true,
	"spriteSourceSize": {"x":1,"y":1,"w":58,"h":93},
	"sourceSize": {"w":74,"h":97}
},
"P14_BLUE_BERRYKIN0018.png":
{
	"frame": {"x":2,"y":2,"w":58,"h":93},
	"rotated": false,
	"trimmed": true,
	"spriteSourceSize": {"x":5,"y":1,"w":58,"h":93},
	"sourceSize": {"w":74,"h":97}
},
"P14_BLUE_BERRYKIN0019.png":
{
	"frame": {"x":2,"y":2,"w":58,"h":93},
	"rotated": false,
	"trimmed": true,
	"spriteSourceSize": {"x":5,"y":1,"w":58,"h":93},
	"sourceSize": {"w":74,"h":97}
},
"P14_BLUE_BERRYKIN0020.png":
{
	"frame": {"x":2,"y":1219,"w":56,"h":93},
	"rotated": false,
	"trimmed": true,
	"spriteSourceSize": {"x":8,"y":0,"w":56,"h":93},
	"sourceSize": {"w":74,"h":97}
},
"P14_BLUE_BERRYKIN0021.png":
{
	"frame": {"x":2,"y":1219,"w":56,"h":93},
	"rotated": false,
	"trimmed": true,
	"spriteSourceSize": {"x":8,"y":0,"w":56,"h":93},
	"sourceSize": {"w":74,"h":97}
},
"P14_BLUE_BERRYKIN0022.png":
{
	"frame": {"x":2,"y":570,"w":58,"h":91},
	"rotated": false,
	"trimmed": true,
	"spriteSourceSize": {"x":9,"y":4,"w":58,"h":91},
	"sourceSize": {"w":74,"h":97}
},
"P14_BLUE_BERRYKIN0023.png":
{
	"frame": {"x":2,"y":570,"w":58,"h":91},
	"rotated": false,
	"trimmed": true,
	"spriteSourceSize": {"x":9,"y":4,"w":58,"h":91},
	"sourceSize": {"w":74,"h":97}
},
"P14_BLUE_BERRYKIN0024.png":
{
	"frame": {"x":2,"y":849,"w":58,"h":89},
	"rotated": false,
	"trimmed": true,
	"spriteSourceSize": {"x":11,"y":6,"w":58,"h":89},
	"sourceSize": {"w":74,"h":97}
},
"P14_BLUE_BERRYKIN0025.png":
{
	"frame": {"x":2,"y":849,"w":58,"h":89},
	"rotated": false,
	"trimmed": true,
	"spriteSourceSize": {"x":11,"y":6,"w":58,"h":89},
	"sourceSize": {"w":74,"h":97}
},
"P14_BLUE_BERRYKIN0026.png":
{
	"frame": {"x":2,"y":1314,"w":56,"h":91},
	"rotated": false,
	"trimmed": true,
	"spriteSourceSize": {"x":13,"y":6,"w":56,"h":91},
	"sourceSize": {"w":74,"h":97}
},
"P14_BLUE_BERRYKIN0027.png":
{
	"frame": {"x":2,"y":1314,"w":56,"h":91},
	"rotated": false,
	"trimmed": true,
	"spriteSourceSize": {"x":13,"y":6,"w":56,"h":91},
	"sourceSize": {"w":74,"h":97}
},
"P14_BLUE_BERRYKIN0028.png":
{
	"frame": {"x":2,"y":477,"w":58,"h":91},
	"rotated": false,
	"trimmed": true,
	"spriteSourceSize": {"x":12,"y":4,"w":58,"h":91},
	"sourceSize": {"w":74,"h":97}
},
"P14_BLUE_BERRYKIN0029.png":
{
	"frame": {"x":2,"y":477,"w":58,"h":91},
	"rotated": false,
	"trimmed": true,
	"spriteSourceSize": {"x":12,"y":4,"w":58,"h":91},
	"sourceSize": {"w":74,"h":97}
},
"P14_BLUE_BERRYKIN0030.png":
{
	"frame": {"x":2,"y":756,"w":58,"h":91},
	"rotated": false,
	"trimmed": true,
	"spriteSourceSize": {"x":12,"y":4,"w":58,"h":91},
	"sourceSize": {"w":74,"h":97}
},
"P14_BLUE_BERRYKIN0031.png":
{
	"frame": {"x":2,"y":756,"w":58,"h":91},
	"rotated": false,
	"trimmed": true,
	"spriteSourceSize": {"x":12,"y":4,"w":58,"h":91},
	"sourceSize": {"w":74,"h":97}
}},
"meta": {
	"app": "http://www.codeandweb.com/texturepacker ",
	"version": "1.0",
	"image": "SS_P14_BLUE_BERRY_ANIM.png",
	"format": "RGBA8888",
	"size": {"w":62,"h":1407},
	"scale": "1",
	"smartupdate": "$TexturePacker:SmartUpdate:96f35da7756254a2468cb75cd4b80442:1/1$"
}
}
