{"frames": {

"Wheel_Big_Silhouette0000.png":
{
	"frame": {"x":2,"y":156,"w":106,"h":138},
	"rotated": false,
	"trimmed": true,
	"spriteSourceSize": {"x":8,"y":9,"w":106,"h":138},
	"sourceSize": {"w":122,"h":156}
},
"Wheel_Big_Silhouette0001.png":
{
	"frame": {"x":2,"y":2,"w":120,"h":152},
	"rotated": false,
	"trimmed": true,
	"spriteSourceSize": {"x":1,"y":2,"w":120,"h":152},
	"sourceSize": {"w":122,"h":156}
}},
"meta": {
	"app": "http://www.codeandweb.com/texturepacker ",
	"version": "1.0",
	"image": "SS_P06_Wheel_Big_Silhouette.png",
	"format": "RGBA8888",
	"size": {"w":124,"h":296},
	"scale": "1",
	"smartupdate": "$TexturePacker:SmartUpdate:29d838ac0c82d174b8a70d885d8dcc5a:1/1$"
}
}
