{"frames": {

"HEADBANDS instance 10000.png":
{
	"frame": {"x":160,"y":73,"w":48,"h":43},
	"rotated": false,
	"trimmed": true,
	"spriteSourceSize": {"x":41,"y":9,"w":48,"h":43},
	"sourceSize": {"w":102,"h":87}
},
"HEADBANDS instance 10001.png":
{
	"frame": {"x":192,"y":2,"w":46,"h":69},
	"rotated": false,
	"trimmed": true,
	"spriteSourceSize": {"x":45,"y":18,"w":46,"h":69},
	"sourceSize": {"w":102,"h":87}
},
"HEADBANDS instance 10002.png":
{
	"frame": {"x":240,"y":69,"w":56,"h":49},
	"rotated": false,
	"trimmed": true,
	"spriteSourceSize": {"x":38,"y":10,"w":56,"h":49},
	"sourceSize": {"w":102,"h":87}
},
"HEADBANDS instance 10003.png":
{
	"frame": {"x":410,"y":63,"w":62,"h":53},
	"rotated": false,
	"trimmed": true,
	"spriteSourceSize": {"x":38,"y":15,"w":62,"h":53},
	"sourceSize": {"w":102,"h":87}
},
"HEADBANDS instance 10004.png":
{
	"frame": {"x":106,"y":73,"w":52,"h":43},
	"rotated": false,
	"trimmed": true,
	"spriteSourceSize": {"x":42,"y":15,"w":52,"h":43},
	"sourceSize": {"w":102,"h":87}
},
"HEADBANDS instance 10005.png":
{
	"frame": {"x":240,"y":2,"w":92,"h":65},
	"rotated": false,
	"trimmed": true,
	"spriteSourceSize": {"x":3,"y":2,"w":92,"h":65},
	"sourceSize": {"w":102,"h":87}
},
"HEADBANDS instance 10006.png":
{
	"frame": {"x":334,"y":2,"w":74,"h":65},
	"rotated": false,
	"trimmed": true,
	"spriteSourceSize": {"x":7,"y":1,"w":74,"h":65},
	"sourceSize": {"w":102,"h":87}
},
"HEADBANDS instance 10007.png":
{
	"frame": {"x":410,"y":2,"w":74,"h":59},
	"rotated": false,
	"trimmed": true,
	"spriteSourceSize": {"x":3,"y":2,"w":74,"h":59},
	"sourceSize": {"w":102,"h":87}
},
"HEADBANDS instance 10008.png":
{
	"frame": {"x":2,"y":2,"w":102,"h":73},
	"rotated": false,
	"trimmed": true,
	"spriteSourceSize": {"x":0,"y":0,"w":102,"h":73},
	"sourceSize": {"w":102,"h":87}
},
"HEADBANDS instance 10009.png":
{
	"frame": {"x":106,"y":2,"w":84,"h":69},
	"rotated": false,
	"trimmed": true,
	"spriteSourceSize": {"x":0,"y":4,"w":84,"h":69},
	"sourceSize": {"w":102,"h":87}
}},
"meta": {
	"app": "http://www.codeandweb.com/texturepacker ",
	"version": "1.0",
	"image": "SS_P08_BANDS_N_BOWS.png",
	"format": "RGBA8888",
	"size": {"w":486,"h":120},
	"scale": "1",
	"smartupdate": "$TexturePacker:SmartUpdate:b359ee6f7d71c5b4f55c8a0b851e9260:1/1$"
}
}
