{"frames": {

"STRAWBERRY instance 10000.png":
{
	"frame": {"x":1542,"y":2,"w":152,"h":291},
	"rotated": false,
	"trimmed": true,
	"spriteSourceSize": {"x":1,"y":5,"w":152,"h":291},
	"sourceSize": {"w":158,"h":297}
},
"STRAWBERRY instance 10001.png":
{
	"frame": {"x":1542,"y":2,"w":152,"h":291},
	"rotated": false,
	"trimmed": true,
	"spriteSourceSize": {"x":1,"y":5,"w":152,"h":291},
	"sourceSize": {"w":158,"h":297}
},
"STRAWBERRY instance 10002.png":
{
	"frame": {"x":1388,"y":2,"w":152,"h":291},
	"rotated": false,
	"trimmed": true,
	"spriteSourceSize": {"x":1,"y":5,"w":152,"h":291},
	"sourceSize": {"w":158,"h":297}
},
"STRAWBERRY instance 10003.png":
{
	"frame": {"x":1388,"y":2,"w":152,"h":291},
	"rotated": false,
	"trimmed": true,
	"spriteSourceSize": {"x":1,"y":5,"w":152,"h":291},
	"sourceSize": {"w":158,"h":297}
},
"STRAWBERRY instance 10004.png":
{
	"frame": {"x":1234,"y":2,"w":152,"h":291},
	"rotated": false,
	"trimmed": true,
	"spriteSourceSize": {"x":1,"y":5,"w":152,"h":291},
	"sourceSize": {"w":158,"h":297}
},
"STRAWBERRY instance 10005.png":
{
	"frame": {"x":1234,"y":2,"w":152,"h":291},
	"rotated": false,
	"trimmed": true,
	"spriteSourceSize": {"x":1,"y":5,"w":152,"h":291},
	"sourceSize": {"w":158,"h":297}
},
"STRAWBERRY instance 10006.png":
{
	"frame": {"x":1080,"y":2,"w":152,"h":291},
	"rotated": false,
	"trimmed": true,
	"spriteSourceSize": {"x":1,"y":5,"w":152,"h":291},
	"sourceSize": {"w":158,"h":297}
},
"STRAWBERRY instance 10007.png":
{
	"frame": {"x":1080,"y":2,"w":152,"h":291},
	"rotated": false,
	"trimmed": true,
	"spriteSourceSize": {"x":1,"y":5,"w":152,"h":291},
	"sourceSize": {"w":158,"h":297}
},
"STRAWBERRY instance 10008.png":
{
	"frame": {"x":926,"y":2,"w":152,"h":291},
	"rotated": false,
	"trimmed": true,
	"spriteSourceSize": {"x":1,"y":5,"w":152,"h":291},
	"sourceSize": {"w":158,"h":297}
},
"STRAWBERRY instance 10009.png":
{
	"frame": {"x":926,"y":2,"w":152,"h":291},
	"rotated": false,
	"trimmed": true,
	"spriteSourceSize": {"x":1,"y":5,"w":152,"h":291},
	"sourceSize": {"w":158,"h":297}
},
"STRAWBERRY instance 10010.png":
{
	"frame": {"x":772,"y":2,"w":152,"h":291},
	"rotated": false,
	"trimmed": true,
	"spriteSourceSize": {"x":1,"y":5,"w":152,"h":291},
	"sourceSize": {"w":158,"h":297}
},
"STRAWBERRY instance 10011.png":
{
	"frame": {"x":772,"y":2,"w":152,"h":291},
	"rotated": false,
	"trimmed": true,
	"spriteSourceSize": {"x":1,"y":5,"w":152,"h":291},
	"sourceSize": {"w":158,"h":297}
},
"STRAWBERRY instance 10012.png":
{
	"frame": {"x":618,"y":2,"w":152,"h":291},
	"rotated": false,
	"trimmed": true,
	"spriteSourceSize": {"x":1,"y":5,"w":152,"h":291},
	"sourceSize": {"w":158,"h":297}
},
"STRAWBERRY instance 10013.png":
{
	"frame": {"x":618,"y":2,"w":152,"h":291},
	"rotated": false,
	"trimmed": true,
	"spriteSourceSize": {"x":1,"y":5,"w":152,"h":291},
	"sourceSize": {"w":158,"h":297}
},
"STRAWBERRY instance 10014.png":
{
	"frame": {"x":464,"y":2,"w":152,"h":291},
	"rotated": false,
	"trimmed": true,
	"spriteSourceSize": {"x":1,"y":5,"w":152,"h":291},
	"sourceSize": {"w":158,"h":297}
},
"STRAWBERRY instance 10015.png":
{
	"frame": {"x":464,"y":2,"w":152,"h":291},
	"rotated": false,
	"trimmed": true,
	"spriteSourceSize": {"x":1,"y":5,"w":152,"h":291},
	"sourceSize": {"w":158,"h":297}
},
"STRAWBERRY instance 10016.png":
{
	"frame": {"x":310,"y":2,"w":152,"h":291},
	"rotated": false,
	"trimmed": true,
	"spriteSourceSize": {"x":1,"y":5,"w":152,"h":291},
	"sourceSize": {"w":158,"h":297}
},
"STRAWBERRY instance 10017.png":
{
	"frame": {"x":310,"y":2,"w":152,"h":291},
	"rotated": false,
	"trimmed": true,
	"spriteSourceSize": {"x":1,"y":5,"w":152,"h":291},
	"sourceSize": {"w":158,"h":297}
},
"STRAWBERRY instance 10018.png":
{
	"frame": {"x":156,"y":2,"w":152,"h":291},
	"rotated": false,
	"trimmed": true,
	"spriteSourceSize": {"x":1,"y":5,"w":152,"h":291},
	"sourceSize": {"w":158,"h":297}
},
"STRAWBERRY instance 10019.png":
{
	"frame": {"x":464,"y":2,"w":152,"h":291},
	"rotated": false,
	"trimmed": true,
	"spriteSourceSize": {"x":1,"y":5,"w":152,"h":291},
	"sourceSize": {"w":158,"h":297}
},
"STRAWBERRY instance 10020.png":
{
	"frame": {"x":464,"y":2,"w":152,"h":291},
	"rotated": false,
	"trimmed": true,
	"spriteSourceSize": {"x":1,"y":5,"w":152,"h":291},
	"sourceSize": {"w":158,"h":297}
},
"STRAWBERRY instance 10021.png":
{
	"frame": {"x":2,"y":2,"w":152,"h":291},
	"rotated": false,
	"trimmed": true,
	"spriteSourceSize": {"x":1,"y":5,"w":152,"h":291},
	"sourceSize": {"w":158,"h":297}
},
"STRAWBERRY instance 10022.png":
{
	"frame": {"x":310,"y":2,"w":152,"h":291},
	"rotated": false,
	"trimmed": true,
	"spriteSourceSize": {"x":1,"y":5,"w":152,"h":291},
	"sourceSize": {"w":158,"h":297}
},
"STRAWBERRY instance 10023.png":
{
	"frame": {"x":310,"y":2,"w":152,"h":291},
	"rotated": false,
	"trimmed": true,
	"spriteSourceSize": {"x":1,"y":5,"w":152,"h":291},
	"sourceSize": {"w":158,"h":297}
},
"STRAWBERRY instance 10024.png":
{
	"frame": {"x":156,"y":2,"w":152,"h":291},
	"rotated": false,
	"trimmed": true,
	"spriteSourceSize": {"x":1,"y":5,"w":152,"h":291},
	"sourceSize": {"w":158,"h":297}
},
"STRAWBERRY instance 10025.png":
{
	"frame": {"x":464,"y":2,"w":152,"h":291},
	"rotated": false,
	"trimmed": true,
	"spriteSourceSize": {"x":1,"y":5,"w":152,"h":291},
	"sourceSize": {"w":158,"h":297}
},
"STRAWBERRY instance 10026.png":
{
	"frame": {"x":464,"y":2,"w":152,"h":291},
	"rotated": false,
	"trimmed": true,
	"spriteSourceSize": {"x":1,"y":5,"w":152,"h":291},
	"sourceSize": {"w":158,"h":297}
},
"STRAWBERRY instance 10027.png":
{
	"frame": {"x":2,"y":2,"w":152,"h":291},
	"rotated": false,
	"trimmed": true,
	"spriteSourceSize": {"x":1,"y":5,"w":152,"h":291},
	"sourceSize": {"w":158,"h":297}
},
"STRAWBERRY instance 10028.png":
{
	"frame": {"x":2,"y":2,"w":152,"h":291},
	"rotated": false,
	"trimmed": true,
	"spriteSourceSize": {"x":1,"y":5,"w":152,"h":291},
	"sourceSize": {"w":158,"h":297}
},
"STRAWBERRY instance 10029.png":
{
	"frame": {"x":310,"y":2,"w":152,"h":291},
	"rotated": false,
	"trimmed": true,
	"spriteSourceSize": {"x":1,"y":5,"w":152,"h":291},
	"sourceSize": {"w":158,"h":297}
},
"STRAWBERRY instance 10030.png":
{
	"frame": {"x":310,"y":2,"w":152,"h":291},
	"rotated": false,
	"trimmed": true,
	"spriteSourceSize": {"x":1,"y":5,"w":152,"h":291},
	"sourceSize": {"w":158,"h":297}
},
"STRAWBERRY instance 10031.png":
{
	"frame": {"x":156,"y":2,"w":152,"h":291},
	"rotated": false,
	"trimmed": true,
	"spriteSourceSize": {"x":1,"y":5,"w":152,"h":291},
	"sourceSize": {"w":158,"h":297}
},
"STRAWBERRY instance 10032.png":
{
	"frame": {"x":464,"y":2,"w":152,"h":291},
	"rotated": false,
	"trimmed": true,
	"spriteSourceSize": {"x":1,"y":5,"w":152,"h":291},
	"sourceSize": {"w":158,"h":297}
},
"STRAWBERRY instance 10033.png":
{
	"frame": {"x":464,"y":2,"w":152,"h":291},
	"rotated": false,
	"trimmed": true,
	"spriteSourceSize": {"x":1,"y":5,"w":152,"h":291},
	"sourceSize": {"w":158,"h":297}
},
"STRAWBERRY instance 10034.png":
{
	"frame": {"x":2,"y":2,"w":152,"h":291},
	"rotated": false,
	"trimmed": true,
	"spriteSourceSize": {"x":1,"y":5,"w":152,"h":291},
	"sourceSize": {"w":158,"h":297}
},
"STRAWBERRY instance 10035.png":
{
	"frame": {"x":310,"y":2,"w":152,"h":291},
	"rotated": false,
	"trimmed": true,
	"spriteSourceSize": {"x":1,"y":5,"w":152,"h":291},
	"sourceSize": {"w":158,"h":297}
},
"STRAWBERRY instance 10036.png":
{
	"frame": {"x":310,"y":2,"w":152,"h":291},
	"rotated": false,
	"trimmed": true,
	"spriteSourceSize": {"x":1,"y":5,"w":152,"h":291},
	"sourceSize": {"w":158,"h":297}
},
"STRAWBERRY instance 10037.png":
{
	"frame": {"x":156,"y":2,"w":152,"h":291},
	"rotated": false,
	"trimmed": true,
	"spriteSourceSize": {"x":1,"y":5,"w":152,"h":291},
	"sourceSize": {"w":158,"h":297}
},
"STRAWBERRY instance 10038.png":
{
	"frame": {"x":464,"y":2,"w":152,"h":291},
	"rotated": false,
	"trimmed": true,
	"spriteSourceSize": {"x":1,"y":5,"w":152,"h":291},
	"sourceSize": {"w":158,"h":297}
},
"STRAWBERRY instance 10039.png":
{
	"frame": {"x":464,"y":2,"w":152,"h":291},
	"rotated": false,
	"trimmed": true,
	"spriteSourceSize": {"x":1,"y":5,"w":152,"h":291},
	"sourceSize": {"w":158,"h":297}
},
"STRAWBERRY instance 10040.png":
{
	"frame": {"x":2,"y":2,"w":152,"h":291},
	"rotated": false,
	"trimmed": true,
	"spriteSourceSize": {"x":1,"y":5,"w":152,"h":291},
	"sourceSize": {"w":158,"h":297}
},
"STRAWBERRY instance 10041.png":
{
	"frame": {"x":310,"y":2,"w":152,"h":291},
	"rotated": false,
	"trimmed": true,
	"spriteSourceSize": {"x":1,"y":5,"w":152,"h":291},
	"sourceSize": {"w":158,"h":297}
},
"STRAWBERRY instance 10042.png":
{
	"frame": {"x":310,"y":2,"w":152,"h":291},
	"rotated": false,
	"trimmed": true,
	"spriteSourceSize": {"x":1,"y":5,"w":152,"h":291},
	"sourceSize": {"w":158,"h":297}
},
"STRAWBERRY instance 10043.png":
{
	"frame": {"x":156,"y":2,"w":152,"h":291},
	"rotated": false,
	"trimmed": true,
	"spriteSourceSize": {"x":1,"y":5,"w":152,"h":291},
	"sourceSize": {"w":158,"h":297}
},
"STRAWBERRY instance 10044.png":
{
	"frame": {"x":464,"y":2,"w":152,"h":291},
	"rotated": false,
	"trimmed": true,
	"spriteSourceSize": {"x":1,"y":5,"w":152,"h":291},
	"sourceSize": {"w":158,"h":297}
},
"STRAWBERRY instance 10045.png":
{
	"frame": {"x":464,"y":2,"w":152,"h":291},
	"rotated": false,
	"trimmed": true,
	"spriteSourceSize": {"x":1,"y":5,"w":152,"h":291},
	"sourceSize": {"w":158,"h":297}
},
"STRAWBERRY instance 10046.png":
{
	"frame": {"x":2,"y":2,"w":152,"h":291},
	"rotated": false,
	"trimmed": true,
	"spriteSourceSize": {"x":1,"y":5,"w":152,"h":291},
	"sourceSize": {"w":158,"h":297}
},
"STRAWBERRY instance 10047.png":
{
	"frame": {"x":2,"y":2,"w":152,"h":291},
	"rotated": false,
	"trimmed": true,
	"spriteSourceSize": {"x":1,"y":5,"w":152,"h":291},
	"sourceSize": {"w":158,"h":297}
},
"STRAWBERRY instance 10048.png":
{
	"frame": {"x":772,"y":2,"w":152,"h":291},
	"rotated": false,
	"trimmed": true,
	"spriteSourceSize": {"x":1,"y":5,"w":152,"h":291},
	"sourceSize": {"w":158,"h":297}
},
"STRAWBERRY instance 10049.png":
{
	"frame": {"x":772,"y":2,"w":152,"h":291},
	"rotated": false,
	"trimmed": true,
	"spriteSourceSize": {"x":1,"y":5,"w":152,"h":291},
	"sourceSize": {"w":158,"h":297}
},
"STRAWBERRY instance 10050.png":
{
	"frame": {"x":926,"y":2,"w":152,"h":291},
	"rotated": false,
	"trimmed": true,
	"spriteSourceSize": {"x":1,"y":5,"w":152,"h":291},
	"sourceSize": {"w":158,"h":297}
},
"STRAWBERRY instance 10051.png":
{
	"frame": {"x":926,"y":2,"w":152,"h":291},
	"rotated": false,
	"trimmed": true,
	"spriteSourceSize": {"x":1,"y":5,"w":152,"h":291},
	"sourceSize": {"w":158,"h":297}
},
"STRAWBERRY instance 10052.png":
{
	"frame": {"x":1080,"y":2,"w":152,"h":291},
	"rotated": false,
	"trimmed": true,
	"spriteSourceSize": {"x":1,"y":5,"w":152,"h":291},
	"sourceSize": {"w":158,"h":297}
},
"STRAWBERRY instance 10053.png":
{
	"frame": {"x":1080,"y":2,"w":152,"h":291},
	"rotated": false,
	"trimmed": true,
	"spriteSourceSize": {"x":1,"y":5,"w":152,"h":291},
	"sourceSize": {"w":158,"h":297}
},
"STRAWBERRY instance 10054.png":
{
	"frame": {"x":1234,"y":2,"w":152,"h":291},
	"rotated": false,
	"trimmed": true,
	"spriteSourceSize": {"x":1,"y":5,"w":152,"h":291},
	"sourceSize": {"w":158,"h":297}
},
"STRAWBERRY instance 10055.png":
{
	"frame": {"x":1234,"y":2,"w":152,"h":291},
	"rotated": false,
	"trimmed": true,
	"spriteSourceSize": {"x":1,"y":5,"w":152,"h":291},
	"sourceSize": {"w":158,"h":297}
},
"STRAWBERRY instance 10056.png":
{
	"frame": {"x":1388,"y":2,"w":152,"h":291},
	"rotated": false,
	"trimmed": true,
	"spriteSourceSize": {"x":1,"y":5,"w":152,"h":291},
	"sourceSize": {"w":158,"h":297}
},
"STRAWBERRY instance 10057.png":
{
	"frame": {"x":1388,"y":2,"w":152,"h":291},
	"rotated": false,
	"trimmed": true,
	"spriteSourceSize": {"x":1,"y":5,"w":152,"h":291},
	"sourceSize": {"w":158,"h":297}
},
"STRAWBERRY instance 10058.png":
{
	"frame": {"x":1542,"y":2,"w":152,"h":291},
	"rotated": false,
	"trimmed": true,
	"spriteSourceSize": {"x":1,"y":5,"w":152,"h":291},
	"sourceSize": {"w":158,"h":297}
}},
"meta": {
	"app": "http://www.codeandweb.com/texturepacker ",
	"version": "1.0",
	"image": "SS_P08_STRAWBERRY.png",
	"format": "RGBA8888",
	"size": {"w":1696,"h":295},
	"scale": "1",
	"smartupdate": "$TexturePacker:SmartUpdate:a61d8c01573b3fb08878be69fea69194:1/1$"
}
}
