{"frames": {

"LIGHTS instance 10000.png":
{
	"frame": {"x":107,"y":2,"w":43,"h":59},
	"rotated": false,
	"trimmed": true,
	"spriteSourceSize": {"x":36,"y":27,"w":43,"h":59},
	"sourceSize": {"w":111,"h":105}
},
"LIGHTS instance 10001.png":
{
	"frame": {"x":2,"y":2,"w":103,"h":103},
	"rotated": false,
	"trimmed": true,
	"spriteSourceSize": {"x":4,"y":0,"w":103,"h":103},
	"sourceSize": {"w":111,"h":105}
}},
"meta": {
	"app": "http://www.codeandweb.com/texturepacker ",
	"version": "1.0",
	"image": "SS_P08_LIGHT.png",
	"format": "RGBA8888",
	"size": {"w":152,"h":107},
	"scale": "1",
	"smartupdate": "$TexturePacker:SmartUpdate:511d8750d87bfc943c8e121aaac3be36:1/1$"
}
}
